%YAML 1.1
%TAG !u! tag:unity3d.com,2011:
--- !u!74 &7400000
AnimationClip:
  m_ObjectHideFlags: 0
  m_CorrespondingSourceObject: {fileID: 0}
  m_PrefabInstance: {fileID: 0}
  m_PrefabAsset: {fileID: 0}
  m_Name: CheckPointActivete
  serializedVersion: 7
  m_Legacy: 0
  m_Compressed: 0
  m_UseHighQualityCurve: 1
  m_RotationCurves: []
  m_CompressedRotationCurves: []
  m_EulerCurves: []
  m_PositionCurves: []
  m_ScaleCurves: []
  m_FloatCurves: []
  m_PPtrCurves:
  - serializedVersion: 2
    curve:
    - time: 0
      value: {fileID: -4184586705055241392, guid: 32726eef68207514bbede9c6509379b5, type: 3}
    - time: 0.04
      value: {fileID: -8500414901909799154, guid: 32726eef68207514bbede9c6509379b5, type: 3}
    - time: 0.08
      value: {fileID: 6600226083578749612, guid: 32726eef68207514bbede9c6509379b5, type: 3}
    - time: 0.12
      value: {fileID: -1756668925505998823, guid: 32726eef68207514bbede9c6509379b5, type: 3}
    - time: 0.16
      value: {fileID: -6967806255545003447, guid: 32726eef68207514bbede9c6509379b5, type: 3}
    - time: 0.2
      value: {fileID: 7127308139407018228, guid: 32726eef68207514bbede9c6509379b5, type: 3}
    - time: 0.24
      value: {fileID: 7200103426585487352, guid: 32726eef68207514bbede9c6509379b5, type: 3}
    - time: 0.28
      value: {fileID: -541522737943073818, guid: 32726eef68207514bbede9c6509379b5, type: 3}
    - time: 0.32
      value: {fileID: -6807852688622114252, guid: 32726eef68207514bbede9c6509379b5, type: 3}
    - time: 0.36
      value: {fileID: 6265099083614238658, guid: 32726eef68207514bbede9c6509379b5, type: 3}
    - time: 0.4
      value: {fileID: 5394087461009959248, guid: 32726eef68207514bbede9c6509379b5, type: 3}
    - time: 0.44
      value: {fileID: -5774344071365144885, guid: 32726eef68207514bbede9c6509379b5, type: 3}
    - time: 0.48
      value: {fileID: -3028704889039134381, guid: 32726eef68207514bbede9c6509379b5, type: 3}
    - time: 0.52
      value: {fileID: 2155129991389349994, guid: 32726eef68207514bbede9c6509379b5, type: 3}
    - time: 0.56
      value: {fileID: -776465599013193395, guid: 32726eef68207514bbede9c6509379b5, type: 3}
    - time: 0.6
      value: {fileID: -4370090337520481786, guid: 32726eef68207514bbede9c6509379b5, type: 3}
    - time: 0.64
      value: {fileID: -1711207211420887195, guid: 32726eef68207514bbede9c6509379b5, type: 3}
    - time: 0.68
      value: {fileID: -5278763548615814542, guid: 32726eef68207514bbede9c6509379b5, type: 3}
    - time: 0.72
      value: {fileID: -8342746687626132780, guid: 32726eef68207514bbede9c6509379b5, type: 3}
    - time: 0.76
      value: {fileID: -8069447969666600582, guid: 32726eef68207514bbede9c6509379b5, type: 3}
    - time: 0.8
      value: {fileID: -4297091758800071936, guid: 32726eef68207514bbede9c6509379b5, type: 3}
    - time: 0.84
      value: {fileID: -2206044501344538863, guid: 32726eef68207514bbede9c6509379b5, type: 3}
    - time: 0.88
      value: {fileID: -991047635057653830, guid: 32726eef68207514bbede9c6509379b5, type: 3}
    - time: 0.92
      value: {fileID: -5557025883363775598, guid: 32726eef68207514bbede9c6509379b5, type: 3}
    - time: 0.96
      value: {fileID: 5095064189951559428, guid: 32726eef68207514bbede9c6509379b5, type: 3}
    - time: 1
      value: {fileID: 6851063822677676398, guid: 32726eef68207514bbede9c6509379b5, type: 3}
    attribute: m_Sprite
    path: 
    classID: 212
    script: {fileID: 0}
    flags: 2
  m_SampleRate: 25
  m_WrapMode: 0
  m_Bounds:
    m_Center: {x: 0, y: 0, z: 0}
    m_Extent: {x: 0, y: 0, z: 0}
  m_ClipBindingConstant:
    genericBindings:
    - serializedVersion: 2
      path: 0
      attribute: 0
      script: {fileID: 0}
      typeID: 212
      customType: 23
      isPPtrCurve: 1
      isIntCurve: 0
      isSerializeReferenceCurve: 0
    pptrCurveMapping:
    - {fileID: -4184586705055241392, guid: 32726eef68207514bbede9c6509379b5, type: 3}
    - {fileID: -8500414901909799154, guid: 32726eef68207514bbede9c6509379b5, type: 3}
    - {fileID: 6600226083578749612, guid: 32726eef68207514bbede9c6509379b5, type: 3}
    - {fileID: -1756668925505998823, guid: 32726eef68207514bbede9c6509379b5, type: 3}
    - {fileID: -6967806255545003447, guid: 32726eef68207514bbede9c6509379b5, type: 3}
    - {fileID: 7127308139407018228, guid: 32726eef68207514bbede9c6509379b5, type: 3}
    - {fileID: 7200103426585487352, guid: 32726eef68207514bbede9c6509379b5, type: 3}
    - {fileID: -541522737943073818, guid: 32726eef68207514bbede9c6509379b5, type: 3}
    - {fileID: -6807852688622114252, guid: 32726eef68207514bbede9c6509379b5, type: 3}
    - {fileID: 6265099083614238658, guid: 32726eef68207514bbede9c6509379b5, type: 3}
    - {fileID: 5394087461009959248, guid: 32726eef68207514bbede9c6509379b5, type: 3}
    - {fileID: -5774344071365144885, guid: 32726eef68207514bbede9c6509379b5, type: 3}
    - {fileID: -3028704889039134381, guid: 32726eef68207514bbede9c6509379b5, type: 3}
    - {fileID: 2155129991389349994, guid: 32726eef68207514bbede9c6509379b5, type: 3}
    - {fileID: -776465599013193395, guid: 32726eef68207514bbede9c6509379b5, type: 3}
    - {fileID: -4370090337520481786, guid: 32726eef68207514bbede9c6509379b5, type: 3}
    - {fileID: -1711207211420887195, guid: 32726eef68207514bbede9c6509379b5, type: 3}
    - {fileID: -5278763548615814542, guid: 32726eef68207514bbede9c6509379b5, type: 3}
    - {fileID: -8342746687626132780, guid: 32726eef68207514bbede9c6509379b5, type: 3}
    - {fileID: -8069447969666600582, guid: 32726eef68207514bbede9c6509379b5, type: 3}
    - {fileID: -4297091758800071936, guid: 32726eef68207514bbede9c6509379b5, type: 3}
    - {fileID: -2206044501344538863, guid: 32726eef68207514bbede9c6509379b5, type: 3}
    - {fileID: -991047635057653830, guid: 32726eef68207514bbede9c6509379b5, type: 3}
    - {fileID: -5557025883363775598, guid: 32726eef68207514bbede9c6509379b5, type: 3}
    - {fileID: 5095064189951559428, guid: 32726eef68207514bbede9c6509379b5, type: 3}
    - {fileID: 6851063822677676398, guid: 32726eef68207514bbede9c6509379b5, type: 3}
  m_AnimationClipSettings:
    serializedVersion: 2
    m_AdditiveReferencePoseClip: {fileID: 0}
    m_AdditiveReferencePoseTime: 0
    m_StartTime: 0
    m_StopTime: 1.04
    m_OrientationOffsetY: 0
    m_Level: 0
    m_CycleOffset: 0
    m_HasAdditiveReferencePose: 0
    m_LoopTime: 1
    m_LoopBlend: 0
    m_LoopBlendOrientation: 0
    m_LoopBlendPositionY: 0
    m_LoopBlendPositionXZ: 0
    m_KeepOriginalOrientation: 0
    m_KeepOriginalPositionY: 1
    m_KeepOriginalPositionXZ: 0
    m_HeightFromFeet: 0
    m_Mirror: 0
  m_EditorCurves: []
  m_EulerEditorCurves: []
  m_HasGenericRootTransform: 0
  m_HasMotionFloatCurves: 0
  m_Events: []
