%YAML 1.1
%TAG !u! tag:unity3d.com,2011:
--- !u!74 &7400000
AnimationClip:
  m_ObjectHideFlags: 0
  m_CorrespondingSourceObject: {fileID: 0}
  m_PrefabInstance: {fileID: 0}
  m_PrefabAsset: {fileID: 0}
  m_Name: RadishIdleFly
  serializedVersion: 7
  m_Legacy: 0
  m_Compressed: 0
  m_UseHighQualityCurve: 1
  m_RotationCurves: []
  m_CompressedRotationCurves: []
  m_EulerCurves: []
  m_PositionCurves: []
  m_ScaleCurves: []
  m_FloatCurves: []
  m_PPtrCurves:
  - serializedVersion: 2
    curve:
    - time: 0
      value: {fileID: -3239594328036583930, guid: c078262cfe23e5f45b0fdf215c6fa100, type: 3}
    - time: 0.06666667
      value: {fileID: 7302690852714551721, guid: c078262cfe23e5f45b0fdf215c6fa100, type: 3}
    - time: 0.13333334
      value: {fileID: 3291639973125621802, guid: c078262cfe23e5f45b0fdf215c6fa100, type: 3}
    - time: 0.2
      value: {fileID: 4545536275218169285, guid: c078262cfe23e5f45b0fdf215c6fa100, type: 3}
    - time: 0.26666668
      value: {fileID: 8702992159582362705, guid: c078262cfe23e5f45b0fdf215c6fa100, type: 3}
    - time: 0.33333334
      value: {fileID: 221437741958881225, guid: c078262cfe23e5f45b0fdf215c6fa100, type: 3}
    attribute: m_Sprite
    path: 
    classID: 212
    script: {fileID: 0}
    flags: 2
  m_SampleRate: 15
  m_WrapMode: 0
  m_Bounds:
    m_Center: {x: 0, y: 0, z: 0}
    m_Extent: {x: 0, y: 0, z: 0}
  m_ClipBindingConstant:
    genericBindings:
    - serializedVersion: 2
      path: 0
      attribute: 0
      script: {fileID: 0}
      typeID: 212
      customType: 23
      isPPtrCurve: 1
      isIntCurve: 0
      isSerializeReferenceCurve: 0
    pptrCurveMapping:
    - {fileID: -3239594328036583930, guid: c078262cfe23e5f45b0fdf215c6fa100, type: 3}
    - {fileID: 7302690852714551721, guid: c078262cfe23e5f45b0fdf215c6fa100, type: 3}
    - {fileID: 3291639973125621802, guid: c078262cfe23e5f45b0fdf215c6fa100, type: 3}
    - {fileID: 4545536275218169285, guid: c078262cfe23e5f45b0fdf215c6fa100, type: 3}
    - {fileID: 8702992159582362705, guid: c078262cfe23e5f45b0fdf215c6fa100, type: 3}
    - {fileID: 221437741958881225, guid: c078262cfe23e5f45b0fdf215c6fa100, type: 3}
  m_AnimationClipSettings:
    serializedVersion: 2
    m_AdditiveReferencePoseClip: {fileID: 0}
    m_AdditiveReferencePoseTime: 0
    m_StartTime: 0
    m_StopTime: 0.4
    m_OrientationOffsetY: 0
    m_Level: 0
    m_CycleOffset: 0
    m_HasAdditiveReferencePose: 0
    m_LoopTime: 1
    m_LoopBlend: 0
    m_LoopBlendOrientation: 0
    m_LoopBlendPositionY: 0
    m_LoopBlendPositionXZ: 0
    m_KeepOriginalOrientation: 0
    m_KeepOriginalPositionY: 1
    m_KeepOriginalPositionXZ: 0
    m_HeightFromFeet: 0
    m_Mirror: 0
  m_EditorCurves: []
  m_EulerEditorCurves: []
  m_HasGenericRootTransform: 0
  m_HasMotionFloatCurves: 0
  m_Events: []
